# 3ds Max Wavefront OBJ Exporter v0.97b - (c)2007 guruware
# File Created: 31.05.2017 19:34:29

newmtl Leaf_2
	Ns 100.0000
	Ni 1.5000
	d 1.0000
	Tr 0.0000
	Tf 1.0000 1.0000 1.0000 
	illum 2
	Ka 0.5880 0.5880 0.5880
	Kd 0.1000 0.1000 0.1000
	Ks 0.0000 0.0000 0.0000
	Ke 0.0000 0.0000 0.0000
	map_Ka VC_Leaf_2_Vertex_Color.tga
	map_Kd VC_Leaf_2_Vertex_Color.tga
